{"count":295,"next":"https://ll.thespacedevs.com/2.0.0/launch/upcoming/?limit=10&offset=10","previous":null,"results":[{"id":"4fbbd174-e97e-41e8-8bc5-4e340af00b44","url":"https://ll.thespacedevs.com/2.0.0/launch/4fbbd174-e97e-41e8-8bc5-4e340af00b44/","launch_library_id":null,"slug":"kuaizhou-1a-longjiang-3","name":"Kuaizhou-1A | Longjiang 3","status":{"id":3,"name":"Success"},"net":"2023-06-09T02:35:00Z","window_end":"2023-06-09T02:54:00Z","window_start":"2023-06-09T02:23:00Z","inhold":false,"tbdtime":false,"tbddate":false,"probability":null,"holdreason":"","failreason":"","hashtag":null,"launch_service_provider":{"id":194,"url":"https://ll.thespacedevs.com/2.0.0/agencies/194/","name":"ExPace","type":"Commercial"},"rocket":{"id":7829,"configuration":{"id":135,"launch_library_id":155,"url":"https://ll.thespacedevs.com/2.0.0/config/launcher/135/","name":"Kuaizhou","family":"Kuaizhou","full_name":"Kuaizhou-1A","variant":"1A"}},"mission":{"id":6396,"launch_library_id":null,"name":"Longjiang 3","description":"Low Earth Orbit prototype communication satellite by Harbin Institute of Technology (HIT), to test a new satellite platform in the shape of a plate for future LEO communication satellite constellations uses.","launch_designator":null,"type":"Communications","orbit":{"id":8,"name":"Low Earth Orbit","abbrev":"LEO"}},"pad":{"id":142,"url":"https://ll.thespacedevs.com/2.0.0/pad/142/","agency_id":null,"name":"Unknown Pad","info_url":null,"wiki_url":"https://en.wikipedia.org/wiki/Jiuquan_Satellite_Launch_Center","map_url":"https://www.google.com/maps?q=40.9605556,100.2961393","latitude":"40.9605556","longitude":"100.2961393","location":{"id":17,"url":"https://ll.thespacedevs.com/2.0.0/location/17/","name":"Jiuquan, People's Republic of China","country_code":"CHN","map_image":"https://spacelaunchnow-prod-east.nyc3.digitaloceanspaces.com/media/launch_images/location_17_20200803142429.jpg","total_launch_count":195,"total_landing_count":0},"map_image":"https://spacelaunchnow-prod-east.nyc3.digitaloceanspaces.com/media/launch_images/pad_142_20200803143244.jpg","total_launch_count":14},"webcast_live":false,"image":"https://spacelaunchnow-prod-east.nyc3.digitaloceanspaces.com/media/launcher_images/kuaizhou_image_20191027094423.jpeg","infographic":null,"program":[]},{"id":"5eba4955-6292-4a62-bc07-07443ff4baaa","url":"https://ll.thespacedevs.com/2.0.0/launch/5eba4955-6292-4a62-bc07-07443ff4baaa/","launch_library_id":null,"slug":"falcon-9-block-5-starlink-group-5-11","name":"Falcon 9 Block 5 | Starlink Group 5-11","status":{"id":2,"name":"TBD"},"net":"2023-06-12T07:10:00Z","window_end":"2023-06-12T10:09:00Z","window_start":"2023-06-12T06:40:00Z","inhold":false,"tbdtime":false,"tbddate":false,"probability":80,"holdreason":"","failreason":"","hashtag":null,"launch_service_provider":{"id":121,"url":"https://ll.thespacedevs.com/2.0.0/agencies/121/","name":"SpaceX","type":"Commercial"},"rocket":{"id":7842,"configuration":{"id":164,"launch_library_id":188,"url":"https://ll.thespacedevs.com/2.0.0/config/launcher/164/","name":"Falcon 9","family":"Falcon","full_name":"Falcon 9 Block 5","variant":"Block 5"}},"mission":{"id":6349,"launch_library_id":null,"name":"Starlink Group 5-11","description":"A batch of 52 satellites for the Starlink mega-constellation - SpaceX's project for space-based Internet communication system.","launch_designator":null,"type":"Communications","orbit":{"id":8,"name":"Low Earth Orbit","abbrev":"LEO"}},"pad":{"id":80,"url":"https://ll.thespacedevs.com/2.0.0/pad/80/","agency_id":121,"name":"Space Launch Complex 40","info_url":null,"wiki_url":"https://en.wikipedia.org/wiki/Cape_Canaveral_Air_Force_Station_Space_Launch_Complex_40","map_url":"https://www.google.com/maps?q=28.56194122,-80.57735736","latitude":"28.56194122","longitude":"-80.57735736","location":{"id":12,"url":"https://ll.thespacedevs.com/2.0.0/location/12/","name":"Cape Canaveral, FL, USA","country_code":"USA","map_image":"https://spacelaunchnow-prod-east.nyc3.digitaloceanspaces.com/media/launch_images/location_12_20200803142519.jpg","total_launch_count":889,"total_landing_count":34},"map_image":"https://spacelaunchnow-prod-east.nyc3.digitaloceanspaces.com/media/launch_images/pad_80_20200803143323.jpg","total_launch_count":183},"webcast_live":false,"image":"https://spacelaunchnow-prod-east.nyc3.digitaloceanspaces.com/media/launch_images/falcon2520925_image_20230503085414.png","infographic":null,"program":[]},{"id":"1e0c3a19-02a8-481b-9b7e-1392327c1826","url":"https://ll.thespacedevs.com/2.0.0/launch/1e0c3a19-02a8-481b-9b7e-1392327c1826/","launch_library_id":null,"slug":"falcon-9-block-5-transporter-8-dedicated-sso-rides","name":"Falcon 9 Block 5 | Transporter 8 (Dedicated SSO Rideshare)","status":{"id":2,"name":"TBD"},"net":"2023-06-12T21:14:00Z","window_end":"2023-06-12T22:57:00Z","window_start":"2023-06-12T21:14:00Z","inhold":false,"tbdtime":false,"tbddate":false,"probability":null,"holdreason":"","failreason":"","hashtag":null,"launch_service_provider":{"id":121,"url":"https://ll.thespacedevs.com/2.0.0/agencies/121/","name":"SpaceX","type":"Commercial"},"rocket":{"id":7527,"configuration":{"id":164,"launch_library_id":188,"url":"https://ll.thespacedevs.com/2.0.0/config/launcher/164/","name":"Falcon 9","family":"Falcon","full_name":"Falcon 9 Block 5","variant":"Block 5"}},"mission":{"id":5946,"launch_library_id":null,"name":"Transporter 8 (Dedicated SSO Rideshare)","description":"Transporter 8 mission is a dedicated rideshare flight to a sun-synchronous orbit with dozens of small microsatellites and nanosatellites for commercial and government customers.","launch_designator":null,"type":"Dedicated Rideshare","orbit":{"id":17,"name":"Sun-Synchronous Orbit","abbrev":"SSO"}},"pad":{"id":16,"url":"https://ll.thespacedevs.com/2.0.0/pad/16/","agency_id":null,"name":"Space Launch Complex 4E","info_url":null,"wiki_url":"","map_url":"https://www.google.com/maps?q=34.632,-120.611","latitude":"34.632","longitude":"-120.611","location":{"id":11,"url":"https://ll.thespacedevs.com/2.0.0/location/11/","name":"Vandenberg SFB, CA, USA","country_code":"USA","map_image":"https://spacelaunchnow-prod-east.nyc3.digitaloceanspaces.com/media/launch_images/location_11_20200803142416.jpg","total_launch_count":720,"total_landing_count":10},"map_image":"https://spacelaunchnow-prod-east.nyc3.digitaloceanspaces.com/media/launch_images/pad_16_20200803143532.jpg","total_launch_count":111},"webcast_live":false,"image":"https://spacelaunchnow-prod-east.nyc3.digitaloceanspaces.com/media/launcher_images/falcon_9_block__image_20210506060831.jpg","infographic":null,"program":[]},{"id":"5608dccc-b00a-4460-bb97-0b67f2d07f76","url":"https://ll.thespacedevs.com/2.0.0/launch/5608dccc-b00a-4460-bb97-0b67f2d07f76/","launch_library_id":null,"slug":"long-march-2d-41-x-jilin-1","name":"Long March 2D | 41 x Jilin-1 (?)","status":{"id":1,"name":"Go"},"net":"2023-06-15T05:45:00Z","window_end":"2023-06-15T06:05:00Z","window_start":"2023-06-15T05:23:00Z","inhold":false,"tbdtime":false,"tbddate":false,"probability":null,"holdreason":"","failreason":"","hashtag":null,"launch_service_provider":{"id":88,"url":"https://ll.thespacedevs.com/2.0.0/agencies/88/","name":"China Aerospace Science and Technology Corporation","type":"Government"},"rocket":{"id":7887,"configuration":{"id":17,"launch_library_id":73,"url":"https://ll.thespacedevs.com/2.0.0/config/launcher/17/","name":"Long March 2D","family":"Long March 2","full_name":"Long March 2D","variant":"2D"}},"mission":{"id":6395,"launch_library_id":null,"name":"41 x Jilin-1","description":"41 new satellites for the Jilin-1 commercial Earth observation satellites constellation.\r\n\r\n\r\nTentative satellites list:\r\n\r\n\r\nJilin-1 Gaofen 03D19~26\r\nJilin-1 Gaofen 06A17~18\r\nKhorgas-1\r\nHaCeNongYao-1\r\nJilin-1 Pingtai 02A01~02","launch_designator":null,"type":"Earth Science","orbit":{"id":17,"name":"Sun-Synchronous Orbit","abbrev":"SSO"}},"pad":{"id":25,"url":"https://ll.thespacedevs.com/2.0.0/pad/25/","agency_id":null,"name":"Launch Complex 9","info_url":null,"wiki_url":"","map_url":"https://www.google.com/maps?q=38.849,111.608","latitude":"38.849","longitude":"111.608","location":{"id":19,"url":"https://ll.thespacedevs.com/2.0.0/location/19/","name":"Taiyuan, People's Republic of China","country_code":"CHN","map_image":"https://spacelaunchnow-prod-east.nyc3.digitaloceanspaces.com/media/launch_images/location_19_20200803142421.jpg","total_launch_count":121,"total_landing_count":0},"map_image":"https://spacelaunchnow-prod-east.nyc3.digitaloceanspaces.com/media/launch_images/pad_25_20200803143501.jpg","total_launch_count":43},"webcast_live":false,"image":"https://spacelaunchnow-prod-east.nyc3.digitaloceanspaces.com/media/launcher_images/long2520march25202d_image_20190222031211.jpeg","infographic":null,"program":[]},{"id":"e3f8e755-0867-413a-a05a-15ca06ce7fa3","url":"https://ll.thespacedevs.com/2.0.0/launch/e3f8e755-0867-413a-a05a-15ca06ce7fa3/","launch_library_id":null,"slug":"ariane-5-eca-syracuse-4b-heinrich-hertz-h2sat","name":"Ariane 5 ECA+ | Syracuse 4B & Heinrich Hertz (H2Sat)","status":{"id":1,"name":"Go"},"net":"2023-06-16T21:26:00Z","window_end":"2023-06-16T23:01:00Z","window_start":"2023-06-16T21:26:00Z","inhold":false,"tbdtime":false,"tbddate":false,"probability":null,"holdreason":"","failreason":"","hashtag":null,"launch_service_provider":{"id":115,"url":"https://ll.thespacedevs.com/2.0.0/agencies/115/","name":"Arianespace","type":"Commercial"},"rocket":{"id":7603,"configuration":{"id":215,"launch_library_id":246,"url":"https://ll.thespacedevs.com/2.0.0/config/launcher/215/","name":"Ariane 5 ECA+","family":"Ariane 5","full_name":"Ariane 5 ECA+","variant":"ECA+"}},"mission":{"id":6078,"launch_library_id":null,"name":"Syracuse 4B & Heinrich Hertz (H2Sat)","description":"Syracuse 4B is a French military communications satellite built by Thales Alenia Space. Heinrich Hertz (H2Sat)  is a small geostationary communications satellite built by OHB System and the German Aerospace Center (DLR) to explore and test new broadband communications technologies.","launch_designator":null,"type":"Communications","orbit":{"id":2,"name":"Geostationary Transfer Orbit","abbrev":"GTO"}},"pad":{"id":77,"url":"https://ll.thespacedevs.com/2.0.0/pad/77/","agency_id":null,"name":"Ariane Launch Area 3","info_url":null,"wiki_url":"http://en.wikipedia.org/wiki/ELA-3","map_url":"https://www.google.com/maps?q=5.239,-52.768","latitude":"5.239","longitude":"-52.768","location":{"id":13,"url":"https://ll.thespacedevs.com/2.0.0/location/13/","name":"Kourou, French Guiana","country_code":"GUF","map_image":"https://spacelaunchnow-prod-east.nyc3.digitaloceanspaces.com/media/launch_images/location_13_20200803142412.jpg","total_launch_count":318,"total_landing_count":0},"map_image":"https://spacelaunchnow-prod-east.nyc3.digitaloceanspaces.com/media/launch_images/pad_77_20200803143458.jpg","total_launch_count":117},"webcast_live":false,"image":"https://spacelaunchnow-prod-east.nyc3.digitaloceanspaces.com/media/launcher_images/ariane_5_eca25_image_20200220090552.jpeg","infographic":null,"program":[]},{"id":"76e42f7b-6690-41be-95c1-811aab0ccf32","url":"https://ll.thespacedevs.com/2.0.0/launch/76e42f7b-6690-41be-95c1-811aab0ccf32/","launch_library_id":null,"slug":"falcon-9-block-5-satria-1","name":"Falcon 9 Block 5 | Satria-1","status":{"id":2,"name":"TBD"},"net":"2023-06-17T23:00:00Z","window_end":"2023-06-17T23:00:00Z","window_start":"2023-06-17T23:00:00Z","inhold":false,"tbdtime":false,"tbddate":false,"probability":null,"holdreason":"","failreason":"","hashtag":null,"launch_service_provider":{"id":121,"url":"https://ll.thespacedevs.com/2.0.0/agencies/121/","name":"SpaceX","type":"Commercial"},"rocket":{"id":7696,"configuration":{"id":164,"launch_library_id":188,"url":"https://ll.thespacedevs.com/2.0.0/config/launcher/164/","name":"Falcon 9","family":"Falcon","full_name":"Falcon 9 Block 5","variant":"Block 5"}},"mission":{"id":6212,"launch_library_id":null,"name":"Satria-1","description":"Indonesian geostationary communications satellite","launch_designator":null,"type":"Communications","orbit":{"id":2,"name":"Geostationary Transfer Orbit","abbrev":"GTO"}},"pad":{"id":80,"url":"https://ll.thespacedevs.com/2.0.0/pad/80/","agency_id":121,"name":"Space Launch Complex 40","info_url":null,"wiki_url":"https://en.wikipedia.org/wiki/Cape_Canaveral_Air_Force_Station_Space_Launch_Complex_40","map_url":"https://www.google.com/maps?q=28.56194122,-80.57735736","latitude":"28.56194122","longitude":"-80.57735736","location":{"id":12,"url":"https://ll.thespacedevs.com/2.0.0/location/12/","name":"Cape Canaveral, FL, USA","country_code":"USA","map_image":"https://spacelaunchnow-prod-east.nyc3.digitaloceanspaces.com/media/launch_images/location_12_20200803142519.jpg","total_launch_count":889,"total_landing_count":34},"map_image":"https://spacelaunchnow-prod-east.nyc3.digitaloceanspaces.com/media/launch_images/pad_80_20200803143323.jpg","total_launch_count":183},"webcast_live":false,"image":"https://spacelaunchnow-prod-east.nyc3.digitaloceanspaces.com/media/launcher_images/falcon_9_block__image_20210506060831.jpg","infographic":null,"program":[]},{"id":"8cfa00a5-a72e-48b7-80bd-944664688f59","url":"https://ll.thespacedevs.com/2.0.0/launch/8cfa00a5-a72e-48b7-80bd-944664688f59/","launch_library_id":1976,"slug":"delta-iv-heavy-nrol-68","name":"Delta IV Heavy | NROL-68","status":{"id":2,"name":"TBD"},"net":"2023-06-21T07:00:00Z","window_end":"2023-06-21T11:45:00Z","window_start":"2023-06-21T07:00:00Z","inhold":false,"tbdtime":false,"tbddate":false,"probability":-1,"holdreason":"","failreason":"","hashtag":null,"launch_service_provider":{"id":124,"url":"https://ll.thespacedevs.com/2.0.0/agencies/124/","name":"United Launch Alliance","type":"Commercial"},"rocket":{"id":2533,"configuration":{"id":21,"launch_library_id":21,"url":"https://ll.thespacedevs.com/2.0.0/config/launcher/21/","name":"Delta IV Heavy","family":"Delta","full_name":"Delta IV Heavy","variant":"Heavy"}},"mission":{"id":6167,"launch_library_id":null,"name":"NROL-68","description":"Classified payload for the National Reconnaissance Office.","launch_designator":null,"type":"Government/Top Secret","orbit":{"id":25,"name":"Unknown","abbrev":"N/A"}},"pad":{"id":38,"url":"https://ll.thespacedevs.com/2.0.0/pad/38/","agency_id":null,"name":"Space Launch Complex 37B","info_url":null,"wiki_url":"https://en.wikipedia.org/wiki/Cape_Canaveral_Air_Force_Station_Space_Launch_Complex_37","map_url":"https://www.google.com/maps?q=28.5317,-80.56495","latitude":"28.5317","longitude":"-80.56495","location":{"id":12,"url":"https://ll.thespacedevs.com/2.0.0/location/12/","name":"Cape Canaveral, FL, USA","country_code":"USA","map_image":"https://spacelaunchnow-prod-east.nyc3.digitaloceanspaces.com/media/launch_images/location_12_20200803142519.jpg","total_launch_count":889,"total_landing_count":34},"map_image":"https://spacelaunchnow-prod-east.nyc3.digitaloceanspaces.com/media/launch_images/pad_38_20200803143515.jpg","total_launch_count":38},"webcast_live":false,"image":"https://spacelaunchnow-prod-east.nyc3.digitaloceanspaces.com/media/launcher_images/delta_iv_heavy_image_20210426103838.jpg","infographic":null,"program":[]},{"id":"6e5725b3-d0e9-4484-9d79-514fe8b978be","url":"https://ll.thespacedevs.com/2.0.0/launch/6e5725b3-d0e9-4484-9d79-514fe8b978be/","launch_library_id":1955,"slug":"soyuz-21bfregat-m-meteor-m-no2-3","name":"Soyuz 2.1b/Fregat-M | Meteor-M No.2-3","status":{"id":2,"name":"TBD"},"net":"2023-06-27T11:34:00Z","window_end":"2023-06-27T11:34:00Z","window_start":"2023-06-27T11:34:00Z","inhold":false,"tbdtime":false,"tbddate":false,"probability":-1,"holdreason":"","failreason":"","hashtag":null,"launch_service_provider":{"id":63,"url":"https://ll.thespacedevs.com/2.0.0/agencies/63/","name":"Russian Federal Space Agency (ROSCOSMOS)","type":"Government"},"rocket":{"id":2510,"configuration":{"id":134,"launch_library_id":153,"url":"https://ll.thespacedevs.com/2.0.0/config/launcher/134/","name":"Soyuz 2.1b/Fregat-M","family":"Soyuz","full_name":"Soyuz 2.1b Fregat-M","variant":"Fregat-M"}},"mission":{"id":6317,"launch_library_id":null,"name":"Meteor-M No.2-3","description":"Meteor-M satellites are a new generation of Russian meteorological satellites to replace the Meteor-3M series. The first two Meteor-M satellites will feature following instruments:\r\n\r\n- MSU-MR - Low-resolution Multispectral Scanner for global and regional for cloud cover mapping\r\n- KMSS-2 - multichannel scanning unit for Earth surface monitoring\r\n- MTVZA-GYa - imager/sounder for Atmospheric temperature and humidity profiles, sea surface wind\r\n- IKFS-2 advanced IR sounder for Atmospheric temperature and humidity profiles\r\n- BRK SSPD - Data Collection System\r\n- RK-SM-MKA - Modified Rescue Radio complex\r\n\r\nOne initial Meteor-M 1 satellite was built, followed by the improved Meteor-M 2 series satellites.","launch_designator":null,"type":"Earth Science","orbit":{"id":17,"name":"Sun-Synchronous Orbit","abbrev":"SSO"}},"pad":{"id":83,"url":"https://ll.thespacedevs.com/2.0.0/pad/83/","agency_id":63,"name":"Cosmodrome Site 1S","info_url":null,"wiki_url":"https://en.wikipedia.org/wiki/Vostochny_Cosmodrome","map_url":"https://www.google.com/maps?q=51.884395,128.333932","latitude":"51.884395","longitude":"128.333932","location":{"id":18,"url":"https://ll.thespacedevs.com/2.0.0/location/18/","name":"Vostochny Cosmodrome, Siberia, Russian Federation","country_code":"RUS","map_image":"https://spacelaunchnow-prod-east.nyc3.digitaloceanspaces.com/media/launch_images/location_18_20200803142401.jpg","total_launch_count":13,"total_landing_count":0},"map_image":"https://spacelaunchnow-prod-east.nyc3.digitaloceanspaces.com/media/launch_images/pad_83_20200803143544.jpg","total_launch_count":13},"webcast_live":false,"image":"https://spacelaunchnow-prod-east.nyc3.digitaloceanspaces.com/media/launcher_images/soyuz25202.1b_image_20190520165337.jpg","infographic":null,"program":[]},{"id":"168f4cf5-35e9-4e4c-90c3-61f1dcd6975e","url":"https://ll.thespacedevs.com/2.0.0/launch/168f4cf5-35e9-4e4c-90c3-61f1dcd6975e/","launch_library_id":null,"slug":"falcon-9-block-5-starlink-group-5-12","name":"Falcon 9 Block 5 | Starlink Group 5-12","status":{"id":2,"name":"TBD"},"net":"2023-06-30T00:00:00Z","window_end":"2023-06-30T00:00:00Z","window_start":"2023-06-30T00:00:00Z","inhold":false,"tbdtime":false,"tbddate":false,"probability":null,"holdreason":"","failreason":"","hashtag":null,"launch_service_provider":{"id":121,"url":"https://ll.thespacedevs.com/2.0.0/agencies/121/","name":"SpaceX","type":"Commercial"},"rocket":{"id":7861,"configuration":{"id":164,"launch_library_id":188,"url":"https://ll.thespacedevs.com/2.0.0/config/launcher/164/","name":"Falcon 9","family":"Falcon","full_name":"Falcon 9 Block 5","variant":"Block 5"}},"mission":{"id":6369,"launch_library_id":null,"name":"Starlink Group 5-12","description":"A batch of satellites for the Starlink mega-constellation - SpaceX's project for space-based Internet communication system.","launch_designator":null,"type":"Communications","orbit":{"id":8,"name":"Low Earth Orbit","abbrev":"LEO"}},"pad":{"id":80,"url":"https://ll.thespacedevs.com/2.0.0/pad/80/","agency_id":121,"name":"Space Launch Complex 40","info_url":null,"wiki_url":"https://en.wikipedia.org/wiki/Cape_Canaveral_Air_Force_Station_Space_Launch_Complex_40","map_url":"https://www.google.com/maps?q=28.56194122,-80.57735736","latitude":"28.56194122","longitude":"-80.57735736","location":{"id":12,"url":"https://ll.thespacedevs.com/2.0.0/location/12/","name":"Cape Canaveral, FL, USA","country_code":"USA","map_image":"https://spacelaunchnow-prod-east.nyc3.digitaloceanspaces.com/media/launch_images/location_12_20200803142519.jpg","total_launch_count":889,"total_landing_count":34},"map_image":"https://spacelaunchnow-prod-east.nyc3.digitaloceanspaces.com/media/launch_images/pad_80_20200803143323.jpg","total_launch_count":183},"webcast_live":false,"image":"https://spacelaunchnow-prod-east.nyc3.digitaloceanspaces.com/media/launch_images/falcon2520925_image_20230522064316.png","infographic":null,"program":[]},{"id":"4250862e-5e59-465c-90ac-262e85db6086","url":"https://ll.thespacedevs.com/2.0.0/launch/4250862e-5e59-465c-90ac-262e85db6086/","launch_library_id":null,"slug":"falcon-9-block-5-starlink-group-5-7","name":"Falcon 9 Block 5 | Starlink Group 5-7","status":{"id":2,"name":"TBD"},"net":"2023-06-30T00:00:00Z","window_end":"2023-06-30T00:00:00Z","window_start":"2023-06-30T00:00:00Z","inhold":false,"tbdtime":false,"tbddate":false,"probability":null,"holdreason":"","failreason":"","hashtag":null,"launch_service_provider":{"id":121,"url":"https://ll.thespacedevs.com/2.0.0/agencies/121/","name":"SpaceX","type":"Commercial"},"rocket":{"id":7843,"configuration":{"id":164,"launch_library_id":188,"url":"https://ll.thespacedevs.com/2.0.0/config/launcher/164/","name":"Falcon 9","family":"Falcon","full_name":"Falcon 9 Block 5","variant":"Block 5"}},"mission":{"id":6350,"launch_library_id":null,"name":"Starlink Group 5-7","description":"A batch of satellites for the Starlink mega-constellation - SpaceX's project for space-based Internet communication system.","launch_designator":null,"type":"Communications","orbit":{"id":8,"name":"Low Earth Orbit","abbrev":"LEO"}},"pad":{"id":16,"url":"https://ll.thespacedevs.com/2.0.0/pad/16/","agency_id":null,"name":"Space Launch Complex 4E","info_url":null,"wiki_url":"","map_url":"https://www.google.com/maps?q=34.632,-120.611","latitude":"34.632","longitude":"-120.611","location":{"id":11,"url":"https://ll.thespacedevs.com/2.0.0/location/11/","name":"Vandenberg SFB, CA, USA","country_code":"USA","map_image":"https://spacelaunchnow-prod-east.nyc3.digitaloceanspaces.com/media/launch_images/location_11_20200803142416.jpg","total_launch_count":720,"total_landing_count":10},"map_image":"https://spacelaunchnow-prod-east.nyc3.digitaloceanspaces.com/media/launch_images/pad_16_20200803143532.jpg","total_launch_count":111},"webcast_live":false,"image":"https://spacelaunchnow-prod-east.nyc3.digitaloceanspaces.com/media/launch_images/falcon2520925_image_20230503085708.png","infographic":null,"program":[]}]}